<?xml version="1.0" encoding="UTF-8" standalone="no"?>
<!-- Created with Inkscape (http://www.inkscape.org/) -->

<svg
   width="47.625004mm"
   height="34.70982mm"
   viewBox="0 0 47.625004 34.70982"
   version="1.1"
   id="svg1146"
   inkscape:version="1.2.2 (b0a8486541, 2022-12-01)"
   sodipodi:docname="kdabtrusted-light-mode.svg"
   xml:space="preserve"
   inkscape:export-filename="trusted.png"
   inkscape:export-xdpi="96"
   inkscape:export-ydpi="96"
   xmlns:inkscape="http://www.inkscape.org/namespaces/inkscape"
   xmlns:sodipodi="http://sodipodi.sourceforge.net/DTD/sodipodi-0.dtd"
   xmlns="http://www.w3.org/2000/svg"
   xmlns:svg="http://www.w3.org/2000/svg"><sodipodi:namedview
     id="namedview1148"
     pagecolor="#ffffff"
     bordercolor="#666666"
     borderopacity="1.0"
     inkscape:pageshadow="2"
     inkscape:pageopacity="0.0"
     inkscape:pagecheckerboard="true"
     inkscape:document-units="mm"
     showgrid="false"
     fit-margin-top="0"
     fit-margin-left="0"
     fit-margin-right="0"
     fit-margin-bottom="0"
     inkscape:zoom="1.9210243"
     inkscape:cx="56.740563"
     inkscape:cy="66.370842"
     inkscape:window-width="1366"
     inkscape:window-height="704"
     inkscape:window-x="0"
     inkscape:window-y="0"
     inkscape:window-maximized="1"
     inkscape:current-layer="layer1"
     inkscape:showpageshadow="2"
     inkscape:deskcolor="#d1d1d1" /><defs
     id="defs1143" /><g
     inkscape:label="Layer 1"
     inkscape:groupmode="layer"
     id="layer1"
     transform="translate(986.17819,-124.15528)"><g
       aria-label="Trusted Software Excellence"
       id="text6251"
       transform="matrix(0.04540994,0,0,0.04540994,-918.66472,135.08422)"><path
         d="M -1221.6547,369.67981 H -1227.2415 L -1218.2442,327.0967 H -1231.4316 L -1230.3597,322.19201 H -1198.3655 L -1199.34,327.0967 H -1212.5924 Z"
         style="-inkscape-font-specification:'Open Sans Light Italic'"
         id="path6357" /><path
         d="M -1183.2292,333.43057 Q -1180.988,333.43057 -1179.3314,333.88531 L -1180.5008,338.75752 Q -1182.2223,338.33526 -1183.9113,338.33526 -1186.8671,338.33526 -1189.4656,340.28415 -1192.0317,342.23303 -1193.9806,345.70854 -1195.897,349.15157 -1196.8064,353.37415 L -1200.2819,369.67981 H -1205.7388 L -1198.1382,334.0802 H -1193.6233 L -1194.3379,340.67392 H -1194.013 Q -1191.6744,337.58819 -1190.1478,336.25645 -1188.6211,334.89224 -1186.9646,334.17765 -1185.2755,333.43057 -1183.2292,333.43057 Z"
         style="-inkscape-font-specification:'Open Sans Light Italic'"
         id="path6359" /><path
         d="M -1166.6637,334.0802 -1171.5359,356.65477 Q -1172.1206,359.54561 -1172.1206,361.16968 -1172.1206,365.81452 -1167.3458,365.81452 -1164.4875,365.81452 -1161.7265,363.86564 -1158.9656,361.91676 -1156.8543,358.27884 -1154.743,354.64092 -1153.6387,349.50886 L -1150.3905,334.0802 H -1144.9986 L -1152.5018,369.67981 H -1157.0167 L -1156.3021,363.08609 H -1156.6919 Q -1159.8751,367.14626 -1162.7659,368.73785 -1165.6568,370.32944 -1168.7425,370.32944 -1172.9001,370.32944 -1175.2713,368.08822 -1177.6424,365.81452 -1177.6424,361.62442 -1177.6424,359.61058 -1176.9278,356.03762 L -1172.1855,334.0802 Z"
         style="-inkscape-font-specification:'Open Sans Light Italic'"
         id="path6361" /><path
         d="M -1119.046,359.5781 Q -1119.046,364.64519 -1122.6514,367.50356 -1126.2244,370.32944 -1132.7531,370.32944 -1138.2425,370.32944 -1142.6599,368.08822 V 362.95616 Q -1140.3863,364.32038 -1137.7553,365.06745 -1135.1243,365.81452 -1132.883,365.81452 -1128.7904,365.81452 -1126.7116,364.19045 -1124.6328,362.56638 -1124.6328,360.03284 -1124.6328,358.1814 -1125.7696,356.91462 -1126.9065,355.64785 -1130.6743,353.43911 -1134.8969,351.06797 -1136.6509,348.79427 -1138.4049,346.52058 -1138.4049,343.40236 -1138.4049,338.91993 -1135.1243,336.19149 -1131.8436,333.43057 -1126.4842,333.43057 -1120.9299,333.43057 -1115.7654,335.8342 L -1117.5193,340.28415 -1119.3383,339.47211 Q -1122.6189,338.07541 -1126.4842,338.07541 -1129.505,338.07541 -1131.2265,339.50459 -1132.948,340.90129 -1132.948,343.14251 -1132.948,344.96147 -1131.8112,346.26072 -1130.6418,347.55998 -1127.0364,349.60631 -1123.5609,351.55519 -1122.0667,352.95189 -1120.5401,354.34859 -1119.793,355.97266 -1119.046,357.56425 -1119.046,359.5781 Z"
         style="-inkscape-font-specification:'Open Sans Light Italic'"
         id="path6363" /><path
         d="M -1101.6035,365.87949 Q -1099.817,365.87949 -1096.9262,365.03497 V 369.22507 Q -1098.0305,369.67981 -1099.6546,370.00462 -1101.2787,370.32944 -1102.2531,370.32944 -1106.3133,370.32944 -1108.4895,368.41304 -1110.6333,366.46415 -1110.6333,362.63135 -1110.6333,360.48757 -1110.0486,357.75914 L -1105.9235,338.20534 H -1111.5103 L -1111.0556,335.8342 -1105.0465,333.30065 -1100.9863,325.89489 H -1097.8032 L -1099.5896,334.0802 H -1090.6897 L -1091.5342,338.20534 H -1100.4017 L -1104.5918,357.8241 Q -1105.1764,360.64998 -1105.1764,362.11164 -1105.1764,363.9306 -1104.2345,364.90504 -1103.2925,365.87949 -1101.6035,365.87949 Z"
         style="-inkscape-font-specification:'Open Sans Light Italic'"
         id="path6365" /><path
         d="M -1076.8851,370.32944 Q -1082.8617,370.32944 -1086.2722,366.78897 -1089.6828,363.24849 -1089.6828,356.97958 -1089.6828,350.87308 -1087.2792,345.28628 -1084.8431,339.667 -1080.8479,336.54879 -1076.8526,333.43057 -1072.0454,333.43057 -1067.0757,333.43057 -1064.5747,335.60683 -1062.0736,337.7506 -1062.0736,341.61588 -1062.0736,347.46254 -1067.4655,350.80812 -1072.8574,354.12122 -1082.8942,354.12122 H -1083.9661 L -1084.096,356.71973 Q -1084.096,360.9748 -1082.1146,363.37842 -1080.1008,365.74956 -1075.9107,365.74956 -1073.8644,365.74956 -1071.7206,365.1649 -1069.5443,364.58023 -1066.3287,363.02112 V 367.76341 Q -1069.3819,369.19259 -1071.7206,369.74477 -1074.0592,370.32944 -1076.8851,370.32944 Z M -1072.3702,338.07541 Q -1075.7158,338.07541 -1078.6716,341.12866 -1081.5949,344.18191 -1083.154,349.60631 H -1082.7643 Q -1075.3585,349.60631 -1071.4282,347.68991 -1067.4655,345.74102 -1067.4655,342.07062 -1067.4655,340.34911 -1068.6673,339.21226 -1069.8367,338.07541 -1072.3702,338.07541 Z"
         style="-inkscape-font-specification:'Open Sans Light Italic'"
         id="path6367" /><path
         d="M -1039.3042,333.49554 Q -1033.0028,333.49554 -1030.1769,339.667 H -1029.8521 Q -1029.2999,334.63238 -1028.3904,330.7671 L -1025.8569,319.13876 H -1020.4649 L -1031.1838,369.67981 H -1035.6987 L -1034.9841,362.8912 H -1035.244 Q -1038.5246,366.95137 -1041.383,368.6404 -1044.2413,370.32944 -1047.2946,370.32944 -1051.8095,370.32944 -1054.343,367.14626 -1056.8766,363.96308 -1056.8766,358.31132 -1056.8766,351.3603 -1054.5379,345.57861 -1052.1993,339.79693 -1048.2365,336.64623 -1044.2413,333.49554 -1039.3042,333.49554 Z M -1045.4756,365.81452 Q -1042.4224,365.81452 -1039.1742,362.79375 -1035.9261,359.7405 -1034.0422,355.0307 -1032.1258,350.28842 -1032.1258,345.38373 -1032.1258,341.77829 -1033.8798,339.89437 -1035.6338,338.01045 -1038.9793,338.01045 -1042.26,338.01045 -1045.0858,340.70641 -1047.8792,343.36988 -1049.6008,348.24209 -1051.2898,353.08182 -1051.2898,358.44125 -1051.2898,365.81452 -1045.4756,365.81452 Z"
         style="-inkscape-font-specification:'Open Sans Light Italic'"
         id="path6369" /><path
         d="M -974.73114,355.9077 Q -974.73114,362.76127 -979.31102,366.5616 -983.85842,370.32944 -992.14117,370.32944 -995.5842,370.32944 -998.21519,369.84222 -1000.8137,369.38748 -1003.1199,368.28311 V 362.76127 Q -997.8579,365.48971 -992.07621,365.48971 -986.81422,365.48971 -983.72849,363.05361 -980.64276,360.58502 -980.64276,356.29747 -980.64276,353.76393 -982.36427,351.84752 -984.0533,349.89864 -988.69814,347.26765 -993.60283,344.50673 -995.51924,341.74581 -997.40316,338.98489 -997.40316,335.21705 -997.40316,329.14303 -993.11561,325.34271 -988.82807,321.5099 -981.84457,321.5099 -978.62891,321.5099 -975.86799,322.12705 -973.07459,322.74419 -969.98886,324.23834 L -972.13263,329.11055 Q -974.2764,327.87625 -976.93988,327.16166 -979.60335,326.44707 -981.84457,326.44707 -986.19708,326.44707 -988.86055,328.72077 -991.49154,330.96199 -991.49154,334.82727 -991.49154,336.58127 -990.93936,337.84804 -990.38718,339.08234 -989.18536,340.1867 -987.98355,341.29107 -984.57301,343.27244 -979.79824,346.1308 -978.14169,347.75487 -976.45266,349.37894 -975.60814,351.3603 -974.73114,353.30919 -974.73114,355.9077 Z"
         style="-inkscape-font-specification:'Open Sans Light Italic'"
         id="path6371" /><path
         d="M -950.11025,333.62546 Q -943.93879,333.62546 -940.36583,337.29586 -936.79288,340.93378 -936.79288,347.33261 -936.79288,353.43911 -939.13154,358.86351 -941.4702,364.2879 -945.46541,367.2437 -949.46062,370.19951 -954.49524,370.19951 -960.73167,370.19951 -964.27214,366.52911 -967.81261,362.85872 -967.81261,356.49236 -967.81261,350.3209 -965.44147,344.89651 -963.07033,339.43963 -959.04264,336.54879 -955.01494,333.62546 -950.11025,333.62546 Z M -942.44464,346.58554 Q -942.44464,342.85018 -944.49097,340.544 -946.50482,338.20534 -949.98033,338.20534 -953.5208,338.20534 -956.34668,340.60896 -959.14008,343.01258 -960.69919,347.30013 -962.22581,351.55519 -962.22581,356.7847 -962.22581,361.03976 -960.17948,363.37842 -958.10067,365.6846 -954.23539,365.6846 -950.85732,365.6846 -948.16137,363.31346 -945.46541,360.94231 -943.97127,356.58981 -942.44464,352.20482 -942.44464,346.58554 Z"
         style="-inkscape-font-specification:'Open Sans Light Italic'"
         id="path6373" /><path
         d="M -937.05272,385.66066 Q -939.29393,385.66066 -941.11289,384.97855 V 380.39867 Q -939.03408,381.11326 -937.47498,381.11326 -935.00639,381.11326 -933.67465,379.09941 -932.34291,377.08557 -931.53088,373.35021 L -924.1576,338.20534 H -930.42651 L -930.00425,336.02908 -923.31309,333.88531 -922.56602,330.63717 Q -921.07187,324.14089 -918.44088,321.47742 -915.7774,318.78146 -910.58038,318.78146 -909.28112,318.78146 -907.3972,319.17124 -905.51328,319.52854 -904.47388,319.98328 L -905.87058,324.17338 Q -908.33916,323.23142 -910.32053,323.23142 -913.14641,323.23142 -914.67304,324.823 -916.16718,326.38211 -917.10914,330.57221 L -917.92118,334.0802 H -910.1906 L -911.00264,338.20534 H -918.70073 L -926.23641,373.86991 Q -927.50319,380.00889 -930.13418,382.83477 -932.76517,385.66066 -937.05272,385.66066 Z"
         style="-inkscape-font-specification:'Open Sans Light Italic'"
         id="path6375" /><path
         d="M -900.02394,365.87949 Q -898.23747,365.87949 -895.34662,365.03497 V 369.22507 Q -896.45099,369.67981 -898.07506,370.00462 -899.69913,370.32944 -900.67357,370.32944 -904.73375,370.32944 -906.91,368.41304 -909.05377,366.46415 -909.05377,362.63135 -909.05377,360.48757 -908.46911,357.75914 L -904.34397,338.20534 H -909.93077 L -909.47603,335.8342 -903.46697,333.30065 -899.4068,325.89489 H -896.22362 L -898.0101,334.0802 H -889.1102 L -889.95471,338.20534 H -898.82213 L -903.01223,357.8241 Q -903.5969,360.64998 -903.5969,362.11164 -903.5969,363.9306 -902.65494,364.90504 -901.71298,365.87949 -900.02394,365.87949 Z"
         style="-inkscape-font-specification:'Open Sans Light Italic'"
         id="path6377" /><path
         d="M -864.2944,369.67981 -865.3338,350.12601 Q -865.46373,347.07276 -865.46373,344.53921 V 339.47211 H -865.75606 L -867.38013,343.30492 -870.07609,349.4439 -879.52817,369.67981 H -886.08941 L -887.48611,334.0802 H -882.15917 L -881.5745,353.37415 V 356.23251 Q -881.5745,361.00728 -881.83435,364.97001 H -881.63946 Q -880.11284,360.94231 -877.18951,354.511 L -867.6075,334.0802 H -861.69589 L -860.49408,353.37415 Q -860.29919,358.83102 -860.29919,361.88427 V 363.60579 L -860.36419,364.97001 H -860.1693 Q -859.25982,362.17661 -857.47335,357.88906 -855.68687,353.56904 -846.98186,334.0802 H -841.20017 L -857.63575,369.67981 Z"
         style="-inkscape-font-specification:'Open Sans Light Italic'"
         id="path6379" /><path
         d="M -822.84815,333.43057 Q -819.85986,333.43057 -817.5212,335.05464 -815.18254,336.64623 -813.88328,339.667 H -813.52599 L -811.34973,334.0802 H -807.2246 L -814.79276,369.67981 H -819.11279 L -818.26827,362.8912 H -818.52812 Q -824.34229,370.32944 -830.77361,370.32944 -835.28852,370.32944 -837.85455,367.11378 -840.42058,363.89812 -840.42058,358.31132 -840.42058,351.55519 -838.1144,345.7735 -835.80823,339.99181 -831.74805,336.71119 -827.68788,333.43057 -822.84815,333.43057 Z M -829.01961,365.81452 Q -825.86892,365.81452 -822.7507,362.82624 -819.63249,359.80547 -817.68361,354.99822 -815.73472,350.15849 -815.73472,345.31876 -815.73472,341.97318 -817.55368,339.99181 -819.37264,338.01045 -822.32845,338.01045 -825.70651,338.01045 -828.62984,340.80385 -831.52068,343.59725 -833.17723,348.37201 -834.83378,353.14678 -834.83378,358.44125 -834.83378,362.14413 -833.30716,363.99557 -831.78053,365.81452 -829.01961,365.81452 Z"
         style="-inkscape-font-specification:'Open Sans Light Italic'"
         id="path6381" /><path
         d="M -781.59676,333.43057 Q -779.35554,333.43057 -777.69899,333.88531 L -778.86832,338.75752 Q -780.58983,338.33526 -782.27887,338.33526 -785.23467,338.33526 -787.83319,340.28415 -790.39922,342.23303 -792.3481,345.70854 -794.2645,349.15157 -795.17398,353.37415 L -798.64949,369.67981 H -804.10636 L -796.50572,334.0802 H -791.9908 L -792.70539,340.67392 H -792.38058 Q -790.04192,337.58819 -788.51529,336.25645 -786.98867,334.89224 -785.33212,334.17765 -783.64309,333.43057 -781.59676,333.43057 Z"
         style="-inkscape-font-specification:'Open Sans Light Italic'"
         id="path6383" /><path
         d="M -765.03127,370.32944 Q -771.00785,370.32944 -774.41839,366.78897 -777.82894,363.24849 -777.82894,356.97958 -777.82894,350.87308 -775.42532,345.28628 -772.98921,339.667 -768.994,336.54879 -764.99879,333.43057 -760.19154,333.43057 -755.22189,333.43057 -752.72082,335.60683 -750.21975,337.7506 -750.21975,341.61588 -750.21975,347.46254 -755.61166,350.80812 -761.00358,354.12122 -771.04033,354.12122 H -772.11221 L -772.24214,356.71973 Q -772.24214,360.9748 -770.26077,363.37842 -768.24693,365.74956 -764.05683,365.74956 -762.0105,365.74956 -759.86673,365.1649 -757.69047,364.58023 -754.47482,363.02112 V 367.76341 Q -757.52807,369.19259 -759.86673,369.74477 -762.20539,370.32944 -765.03127,370.32944 Z M -760.51636,338.07541 Q -763.86194,338.07541 -766.81775,341.12866 -769.74107,344.18191 -771.30018,349.60631 H -770.9104 Q -763.50464,349.60631 -759.57439,347.68991 -755.61166,345.74102 -755.61166,342.07062 -755.61166,340.34911 -756.81348,339.21226 -757.98281,338.07541 -760.51636,338.07541 Z"
         style="-inkscape-font-specification:'Open Sans Light Italic'"
         id="path6385" /><path
         d="M -704.25856,369.67981 H -728.13238 L -718.09563,322.19201 H -694.22181 L -695.26121,327.16166 H -713.64568 L -716.82886,342.39544 H -699.71116 L -700.65312,347.33261 H -717.83578 L -721.53866,364.74264 H -703.18667 Z"
         style="-inkscape-font-specification:'Open Sans Light Italic'"
         id="path6387" /><path
         d="M -681.74897,355.58288 -692.98754,369.67981 H -699.32141 L -683.89275,351.32782 -691.6558,334.0802 H -686.13396 L -680.4822,347.46254 -669.76334,334.0802 H -663.46195 L -678.24098,351.58767 -670.05567,369.67981 H -675.51255 Z"
         style="-inkscape-font-specification:'Open Sans Light Italic'"
         id="path6389" /><path
         d="M -650.01467,370.32944 Q -656.31606,370.32944 -659.79157,366.85393 -663.26708,363.37842 -663.26708,357.04455 -663.26708,350.54827 -660.86346,345.05891 -658.45983,339.56956 -654.23725,336.51631 -649.98219,333.43057 -644.68772,333.43057 -640.23777,333.43057 -635.98271,335.08712 L -637.50933,339.667 Q -641.4071,338.01045 -644.62276,338.01045 -648.26068,338.01045 -651.28145,340.51152 -654.26973,342.9801 -655.99125,347.43005 -657.68028,351.84752 -657.68028,357.04455 -657.68028,361.20217 -655.53651,363.50834 -653.36025,365.81452 -649.55993,365.81452 -647.22127,365.81452 -645.14246,365.1649 -643.06365,364.51527 -641.04981,363.63827 V 368.28311 Q -645.0775,370.32944 -650.01467,370.32944 Z"
         style="-inkscape-font-specification:'Open Sans Light Italic'"
         id="path6391" /><path
         d="M -620.52153,370.32944 Q -626.49811,370.32944 -629.90866,366.78897 -633.3192,363.24849 -633.3192,356.97958 -633.3192,350.87308 -630.91558,345.28628 -628.47948,339.667 -624.48426,336.54879 -620.48905,333.43057 -615.68181,333.43057 -610.71215,333.43057 -608.21109,335.60683 -605.71002,337.7506 -605.71002,341.61588 -605.71002,347.46254 -611.10193,350.80812 -616.49384,354.12122 -626.53059,354.12122 H -627.60248 L -627.7324,356.71973 Q -627.7324,360.9748 -625.75104,363.37842 -623.73719,365.74956 -619.54709,365.74956 -617.50076,365.74956 -615.35699,365.1649 -613.18074,364.58023 -609.96508,363.02112 V 367.76341 Q -613.01833,369.19259 -615.35699,369.74477 -617.69565,370.32944 -620.52153,370.32944 Z M -616.00662,338.07541 Q -619.3522,338.07541 -622.30801,341.12866 -625.23134,344.18191 -626.79044,349.60631 H -626.40067 Q -618.99491,349.60631 -615.06466,347.68991 -611.10193,345.74102 -611.10193,342.07062 -611.10193,340.34911 -612.30374,339.21226 -613.47307,338.07541 -616.00662,338.07541 Z"
         style="-inkscape-font-specification:'Open Sans Light Italic'"
         id="path6393" /><path
         d="M -596.38785,369.67981 H -601.84473 L -591.0609,319.13876 H -585.60403 Z"
         style="-inkscape-font-specification:'Open Sans Light Italic'"
         id="path6395" /><path
         d="M -579.49753,369.67981 H -584.95441 L -574.17058,319.13876 H -568.71371 Z"
         style="-inkscape-font-specification:'Open Sans Light Italic'"
         id="path6397" /><path
         d="M -553.93468,370.32944 Q -559.91126,370.32944 -563.3218,366.78897 -566.73235,363.24849 -566.73235,356.97958 -566.73235,350.87308 -564.32873,345.28628 -561.89262,339.667 -557.89741,336.54879 -553.9022,333.43057 -549.09495,333.43057 -544.1253,333.43057 -541.62423,335.60683 -539.12317,337.7506 -539.12317,341.61588 -539.12317,347.46254 -544.51508,350.80812 -549.90699,354.12122 -559.94374,354.12122 H -561.01563 L -561.14555,356.71973 Q -561.14555,360.9748 -559.16419,363.37842 -557.15034,365.74956 -552.96024,365.74956 -550.91391,365.74956 -548.77014,365.1649 -546.59389,364.58023 -543.37823,363.02112 V 367.76341 Q -546.43148,369.19259 -548.77014,369.74477 -551.1088,370.32944 -553.93468,370.32944 Z M -549.41977,338.07541 Q -552.76535,338.07541 -555.72116,341.12866 -558.64448,344.18191 -560.20359,349.60631 H -559.81381 Q -552.40806,349.60631 -548.47781,347.68991 -544.51508,345.74102 -544.51508,342.07062 -544.51508,340.34911 -545.71689,339.21226 -546.88622,338.07541 -549.41977,338.07541 Z"
         style="-inkscape-font-specification:'Open Sans Light Italic'"
         id="path6399" /><path
         d="M -513.43038,369.67981 -508.62313,347.20268 Q -507.9735,343.82462 -507.9735,342.52536 -507.9735,340.47904 -509.14283,339.24474 -510.27968,338.01045 -512.81323,338.01045 -515.70407,338.01045 -518.46499,339.95933 -521.19343,341.90822 -523.30472,345.51365 -525.38353,349.11909 -526.45542,354.25115 L -529.73604,369.67981 H -535.19291 L -527.59227,334.0802 H -523.07735 L -523.79194,340.67392 H -523.46713 Q -520.34891,336.71119 -517.45807,335.08712 -514.53474,333.43057 -511.41653,333.43057 -507.29139,333.43057 -504.92025,335.70427 -502.51663,337.94549 -502.51663,342.00566 -502.51663,344.57169 -503.2637,347.85231 L -507.90854,369.67981 Z"
         style="-inkscape-font-specification:'Open Sans Light Italic'"
         id="path6401" /><path
         d="M -482.28072,370.32944 Q -488.58211,370.32944 -492.05762,366.85393 -495.53313,363.37842 -495.53313,357.04455 -495.53313,350.54827 -493.12951,345.05891 -490.72589,339.56956 -486.5033,336.51631 -482.24824,333.43057 -476.95377,333.43057 -472.50382,333.43057 -468.24876,335.08712 L -469.77539,339.667 Q -473.67315,338.01045 -476.88881,338.01045 -480.52673,338.01045 -483.5475,340.51152 -486.53579,342.9801 -488.2573,347.43005 -489.94633,351.84752 -489.94633,357.04455 -489.94633,361.20217 -487.80256,363.50834 -485.62631,365.81452 -481.82598,365.81452 -479.48732,365.81452 -477.40851,365.1649 -475.3297,364.51527 -473.31586,363.63827 V 368.28311 Q -477.34355,370.32944 -482.28072,370.32944 Z"
         style="-inkscape-font-specification:'Open Sans Light Italic'"
         id="path6403" /><path
         d="M -452.78759,370.32944 Q -458.76416,370.32944 -462.17471,366.78897 -465.58526,363.24849 -465.58526,356.97958 -465.58526,350.87308 -463.18163,345.28628 -460.74553,339.667 -456.75032,336.54879 -452.75511,333.43057 -447.94786,333.43057 -442.97821,333.43057 -440.47714,335.60683 -437.97607,337.7506 -437.97607,341.61588 -437.97607,347.46254 -443.36798,350.80812 -448.75989,354.12122 -458.79664,354.12122 H -459.86853 L -459.99846,356.71973 Q -459.99846,360.9748 -458.01709,363.37842 -456.00324,365.74956 -451.81314,365.74956 -449.76682,365.74956 -447.62304,365.1649 -445.44679,364.58023 -442.23113,363.02112 V 367.76341 Q -445.28438,369.19259 -447.62304,369.74477 -449.96171,370.32944 -452.78759,370.32944 Z M -448.27267,338.07541 Q -451.61826,338.07541 -454.57406,341.12866 -457.49739,344.18191 -459.0565,349.60631 H -458.66672 Q -451.26096,349.60631 -447.33071,347.68991 -443.36798,345.74102 -443.36798,342.07062 -443.36798,340.34911 -444.56979,339.21226 -445.73912,338.07541 -448.27267,338.07541 Z"
         style="-inkscape-font-specification:'Open Sans Light Italic'"
         id="path6405" /></g><rect
       style="fill:#ffffff;fill-opacity:1;stroke-width:0.0120336;stroke-linecap:round;stroke-linejoin:round;stroke-dasharray:0.0120336, 0.0240673"
       id="rect6082"
       width="32.342937"
       height="17.77177"
       x="-982.93427"
       y="127.04686"
       rx="1.0215073"
       ry="1.0215073" /><path
       id="path5356"
       style="fill:#0077c8;fill-opacity:1;stroke-width:0.199241"
       d="M -986.17819,124.15528 V 158.8651 L -974.9314,147.34318 H -946.8117 V 124.15528 Z M -975.71524,132.42797 -975.72182,138.89534 C -975.72182,138.89534 -975.84513,138.92622 -976.08024,138.88259 -976.31593,138.83775 -976.49326,138.62578 -976.91904,138.62578 -977.34582,138.62578 -977.53788,138.89753 -978.08719,138.92044 -978.63629,138.94196 -978.89353,138.62259 -979.28583,138.62578 -979.8168,138.62996 -980.00429,138.87701 -980.40695,138.92044 -980.81022,138.96607 -981.02262,138.80529 -981.02262,138.80529 L -980.50938,138.32371 -980.27267,138.29882 C -980.03756,138.2767 -979.82737,138.02345 -979.31114,138.02345 -978.7959,138.02345 -978.50341,138.34623 -978.10014,138.32351 -977.69609,138.30219 -977.30199,138.03342 -976.91904,138.02345 -976.53929,138.0129 -976.33745,138.15737 -976.33745,138.15737 V 133.93983 L -977.79849,135.3885 -976.60704,135.38212 -978.36933,137.12527 C -978.36933,137.12527 -978.29938,137.16973 -978.07484,137.15778 -977.84969,137.14641 -977.74272,137.09043 -977.52913,136.97826 -977.31635,136.86628 -976.94635,136.86328 -976.94635,136.86328 V 137.45943 L -977.04197,137.47178 C -977.14418,137.48254 -977.38168,137.56122 -977.38168,137.56122 -977.61738,137.62936 -977.99257,137.94258 -978.55403,137.67121 -979.22867,137.34585 -979.65701,137.49787 -979.65701,137.49787 L -978.11249,135.98502 H -979.28583 Z M -974.28049,132.5499 H -973.67141 V 135.19724 L -970.85653,132.6334 H -970.01614 L -973.12551,135.4648 -969.79198,138.89574 H -970.65768 L -973.67141,135.79237 V 138.89574 H -974.28049 Z M -960.8313,132.5499 H -960.20888 L -957.81919,138.89574 H -958.53725 L -959.26188,137.25956 H -961.83787 L -962.49797,138.89574 H -963.22859 Z M -956.63948,132.5499 H -954.63331 C -953.98757,132.5499 -953.49005,132.6852 -953.14078,132.95358 -952.79092,133.22176 -952.615,133.6818 -952.61401,134.17811 -952.61481,134.56045 -952.70387,134.86111 -952.88438,135.08745 -953.06211,135.31398 -953.32608,135.45464 -953.67196,135.51023 -953.25435,135.59989 -952.93358,135.78938 -952.70386,136.07469 -952.47154,136.35781 -952.35141,136.71944 -952.35141,137.14502 -952.35141,137.70489 -952.54307,138.13585 -952.92262,138.44009 -953.30298,138.74553 -953.8479,138.89574 -954.55043,138.89574 H -956.63948 Z M -968.74737,132.56924 H -967.13909 C -965.92512,132.56924 -965.0341,132.82507 -964.46547,133.33194 -963.89783,133.83523 -963.61391,134.68598 -963.61391,135.76069 -963.61391,136.84098 -963.89485,137.63235 -964.46547,138.13921 -965.03709,138.64449 -965.9309,138.89574 -967.13909,138.89574 H -968.74737 Z M -968.11996,133.09961 V 138.28707 H -966.90219 C -966.03728,138.28707 -965.40451,137.99858 -965.00383,137.60627 -964.60237,137.21476 -964.39594,136.60646 -964.39594,135.76049 -964.39594,134.92088 -964.60237,134.11753 -965.00383,133.72901 -965.40431,133.3369 -966.03708,133.09961 -966.90219,133.09961 Z M -956.03098,133.15141 V 135.20878 H -954.56837 C -954.15514,135.20878 -953.84213,135.13209 -953.6403,134.97867 -953.43588,134.82167 -953.30059,134.4963 -953.30059,134.17811 -953.30059,133.86211 -953.43588,133.54592 -953.6403,133.38891 -953.84193,133.23191 -954.15514,133.15141 -954.56837,133.15141 Z M -960.52407,133.38253 -961.65238,136.64552 H -959.38999 Z M -956.03098,135.83699 V 138.29284 H -954.42173 C -953.96547,138.29284 -953.6347,138.198 -953.41574,138.01032 -953.19498,137.82025 -953.04396,137.53454 -953.04396,137.14502 -953.04396,136.75311 -953.19498,136.30401 -953.41574,136.11931 -953.6347,135.93203 -953.96547,135.83699 -954.42173,135.83699 Z" /></g></svg>
