<?xml version="1.0" encoding="UTF-8" standalone="no"?>
<svg
   width="197.645"
   height="50"
   viewBox="0 0 197.645 50"
   fill="none"
   version="1.1"
   id="svg14"
   sodipodi:docname="qt-group-logo-dark-mode.svg"
   inkscape:version="1.2.2 (b0a8486541, 2022-12-01)"
   xmlns:inkscape="http://www.inkscape.org/namespaces/inkscape"
   xmlns:sodipodi="http://sodipodi.sourceforge.net/DTD/sodipodi-0.dtd"
   xmlns="http://www.w3.org/2000/svg"
   xmlns:svg="http://www.w3.org/2000/svg">
  <defs
     id="defs18" />
  <sodipodi:namedview
     id="namedview16"
     pagecolor="#ffffff"
     bordercolor="#666666"
     borderopacity="1.0"
     inkscape:showpageshadow="2"
     inkscape:pageopacity="0.0"
     inkscape:pagecheckerboard="0"
     inkscape:deskcolor="#d1d1d1"
     showgrid="false"
     inkscape:zoom="0.96524487"
     inkscape:cx="51.800327"
     inkscape:cy="26.418167"
     inkscape:window-width="1366"
     inkscape:window-height="704"
     inkscape:window-x="0"
     inkscape:window-y="0"
     inkscape:window-maximized="1"
     inkscape:current-layer="svg14" />
  <path
     fill-rule="evenodd"
     clip-rule="evenodd"
     d="M 0,8 8,0 H 70 V 42 L 62,50 H 0 Z M 33.32,45.795 37.955,43.635 H 37.95 L 34.17,37.56 C 35.91,36.39 37.165,34.695 37.93,32.475 38.69,30.255 39.075,27.345 39.075,23.745 39.075,18.285 38.145,14.24 36.285,11.615 34.425,8.99 31.185,7.675 26.565,7.675 21.945,7.675 18.7,8.995 16.825,11.635 14.95,14.28 14.015,18.32 14.015,23.765 14.015,29.21 14.935,33.195 16.78,35.715 18.63,38.235 21.89,39.495 26.57,39.495 27.83,39.495 28.745,39.405 29.315,39.225 Z M 45.825,37.74 C 46.77,38.91 48.52,39.495 51.07,39.495 52.12,39.495 53.65,39.3 55.66,38.91 L 55.435,34.995 51.745,35.13 C 50.635,35.13 49.945,34.83 49.675,34.23 49.405,33.63 49.27,32.415 49.27,30.585 V 20.685 H 55.48 V 16.5 H 49.27 V 9.975 H 44.41 V 16.5 H 41.53 V 20.685 H 44.41 V 31.125 C 44.41,34.365 44.88,36.57 45.825,37.74 Z M 20.76506,14.834969 C 21.81506,12.974969 23.75006,12.044969 26.57006,12.044969 29.39006,12.044969 31.32,12.974969 32.355,14.834969 33.385,16.694969 33.905,19.679969 33.905,23.789969 33.905,27.899969 33.405,30.814969 32.4,32.54 31.39,34.265 29.45006,35.125 26.57006,35.125 23.69006,35.125 21.74006,34.25 20.72006,32.495 19.70006,30.739969 19.19006,27.824969 19.19006,23.744969 19.19006,19.664969 19.71506,16.694969 20.76506,14.834969 Z"
     fill="#ffffff"
     id="path2"
     style="stroke-width:0.3125" />
  <path
     d="M 99.5475,27.2725 V 22.8625 H 108.3225 V 38.5225 C 107.5125,38.7325 105.8625,38.9575 103.3725,39.1975 100.9125,39.4375 99.1275,39.5575 98.0175,39.5575 93.3375,39.5575 90.1125,38.2675 88.3425,35.6875 86.5725,33.1075 85.6875,29.0725 85.6875,23.5825 85.6875,18.0625 86.5875,14.0425 88.3875,11.5225 90.2175,9.0025 93.3675,7.7425 97.8375,7.7425 100.4775,7.7425 103.4475,8.0425 106.7475,8.6425 L 108.3225,8.9575 108.1425,12.9175 C 104.5125,12.4375 101.2575,12.1975 98.3775,12.1975 95.4975,12.1975 93.5175,13.0075 92.4375,14.6275 91.3875,16.2475 90.8625,19.2475 90.8625,23.6275 90.8625,28.0075 91.3575,31.0375 92.3475,32.7175 93.3675,34.3675 95.4075,35.1925 98.4675,35.1925 100.6575,35.1925 102.2925,35.0575 103.3725,34.7875 V 27.2725 Z"
     fill="#ffffff"
     id="path4"
     style="stroke-width:0.3125" />
  <path
     d="M 114.00531,39.0625 V 16.5625 H 118.86531 V 19.2625 C 121.41531,17.6125 123.96531,16.5475 126.51531,16.0675 V 20.9725 C 123.93531,21.4825 121.73031,22.1425 119.90031,22.9525 L 118.91031,23.3575 V 39.0625 Z"
     fill="#ffffff"
     id="path6"
     style="stroke-width:0.3125" />
  <path
     d="M 131.30406,18.9925 C 132.86406,17.0425 135.44406,16.0675 139.04406,16.0675 142.64406,16.0675 145.20906,17.0425 146.73906,18.9925 148.29906,20.9425 149.07906,23.8675 149.07906,27.7675 149.07906,31.6675 148.32906,34.6075 146.82906,36.5875 145.32906,38.5675 142.73406,39.5575 139.04406,39.5575 135.35406,39.5575 132.75906,38.5675 131.25906,36.5875 129.75906,34.6075 129.00906,31.6675 129.00906,27.7675 129.00906,23.8675 129.77406,20.9425 131.30406,18.9925 Z M 134.99406,33.6175 C 135.68406,34.8175 137.03406,35.4175 139.04406,35.4175 141.05406,35.4175 142.40406,34.8175 143.09406,33.6175 143.78406,32.4175 144.12906,30.4525 144.12906,27.7225 144.12906,24.9925 143.75406,23.0575 143.00406,21.9175 142.28406,20.7775 140.96406,20.2075 139.04406,20.2075 137.12406,20.2075 135.78906,20.7775 135.03906,21.9175 134.31906,23.0575 133.95906,24.9925 133.95906,27.7225 133.95906,30.4525 134.30406,32.4175 134.99406,33.6175 Z"
     fill="#ffffff"
     id="path8"
     style="stroke-width:0.3125" />
  <path
     d="M 167.58656,16.5625 H 172.44656 V 39.0625 H 167.58656 V 37.6675 C 165.39656,38.9275 163.37156,39.5575 161.51156,39.5575 158.42156,39.5575 156.35156,38.7325 155.30156,37.0825 154.25156,35.4025 153.72656,32.4775 153.72656,28.3075 V 16.5625 H 158.63156 V 28.3525 C 158.63156,31.0525 158.85656,32.8675 159.30656,33.7975 159.75656,34.7275 160.80656,35.1925 162.45656,35.1925 164.07656,35.1925 165.56156,34.8925 166.91156,34.2925 L 167.58656,34.0225 Z"
     fill="#ffffff"
     id="path10"
     style="stroke-width:0.3125" />
  <path
     d="M 178.385,48.7375 V 16.5625 H 183.245 V 17.9575 C 185.315,16.6975 187.25,16.0675 189.05,16.0675 192.02,16.0675 194.195,16.9825 195.575,18.8125 196.955,20.6125 197.645,23.6575 197.645,27.9475 197.645,32.2075 196.85,35.2075 195.26,36.9475 193.7,38.6875 191.135,39.5575 187.565,39.5575 186.335,39.5575 184.91,39.4225 183.29,39.1525 V 48.7375 Z M 188.195,20.4325 C 186.785,20.4325 185.375,20.7475 183.965,21.3775 L 183.29,21.6925 V 34.9675 C 184.49,35.2075 185.81,35.3275 187.25,35.3275 189.29,35.3275 190.7,34.7425 191.48,33.5725 192.26,32.4025 192.65,30.4075 192.65,27.5875 192.65,22.8175 191.165,20.4325 188.195,20.4325 Z"
     fill="#ffffff"
     id="path12"
     style="stroke-width:0.3125" />
</svg>
