<?xml version="1.0" encoding="UTF-8" standalone="no"?>
<svg
   id="svg2"
   version="1.1"
   inkscape:version="1.2.2 (b0a8486541, 2022-12-01)"
   viewBox="0 0 125.91854 50"
   sodipodi:docname="tuxedo-dark-mode_small.svg"
   width="125.91854"
   height="50"
   xmlns:inkscape="http://www.inkscape.org/namespaces/inkscape"
   xmlns:sodipodi="http://sodipodi.sourceforge.net/DTD/sodipodi-0.dtd"
   xmlns="http://www.w3.org/2000/svg"
   xmlns:svg="http://www.w3.org/2000/svg"
   xmlns:rdf="http://www.w3.org/1999/02/22-rdf-syntax-ns#"
   xmlns:cc="http://creativecommons.org/ns#"
   xmlns:dc="http://purl.org/dc/elements/1.1/">
  <sodipodi:namedview
     id="namedview21"
     pagecolor="#ffffff"
     bordercolor="#666666"
     borderopacity="1.0"
     inkscape:showpageshadow="2"
     inkscape:pageopacity="0.0"
     inkscape:pagecheckerboard="0"
     inkscape:deskcolor="#d1d1d1"
     showgrid="false"
     inkscape:zoom="1.0316195"
     inkscape:cx="112.44456"
     inkscape:cy="51.860205"
     inkscape:window-width="1366"
     inkscape:window-height="704"
     inkscape:window-x="0"
     inkscape:window-y="0"
     inkscape:window-maximized="1"
     inkscape:current-layer="svg2" />
  <metadata
     id="metadata8">
    <rdf:RDF>
      <cc:Work
         rdf:about="">
        <dc:format>image/svg+xml</dc:format>
        <dc:type
           rdf:resource="http://purl.org/dc/dcmitype/StillImage" />
      </cc:Work>
    </rdf:RDF>
  </metadata>
  <defs
     id="defs6" />
  <g
     id="g10"
     transform="matrix(4.1585402,0,0,-4.1585402,-2.0630268,51.559453)">
    <g
       id="g12"
       transform="scale(0.05)">
      <path
         d="M 551,29.1992 H 547.684 V 8.21484 H 537.863 V 59.043 C 539.863,59.1953 542.105,59.3086 544.613,59.4219 547.098,59.5352 549.492,59.5898 551.797,59.5898 557.637,59.5898 562.09,58.457 565.125,56.2148 568.156,53.9727 569.684,50.4648 569.684,45.6758 569.684,43.5273 569.422,41.6797 568.91,40.0977 568.402,38.5117 567.707,37.1328 566.859,35.9453 566.008,34.7773 565.047,33.7813 563.938,32.9688 562.82,32.1602 561.676,31.4805 560.445,30.9336 561.898,28.3125 563.258,25.8438 564.578,23.5234 565.879,21.2031 567.195,19.1875 568.496,17.4531 569.797,15.7188 571.137,14.3438 572.473,13.3438 573.816,12.3242 575.266,11.8164 576.813,11.8164 H 577.152 V 8.55469 C 576.359,8.29297 575.473,8.08203 574.457,7.91406 573.457,7.74609 572.324,7.66797 571.063,7.66797 569.25,7.66797 567.688,7.83984 566.348,8.16016 564.992,8.5 563.691,9.21484 562.41,10.3281 561.145,11.4219 559.824,13.043 558.469,15.1719 557.09,17.3047 555.508,20.207 553.719,23.8477 Z M 549.457,34.2305 C 550.816,34.2305 552.133,34.4023 553.414,34.7578 554.68,35.0977 555.695,35.5313 556.434,36.0586 556.789,36.3086 557.168,36.6445 557.523,37.0391 557.902,37.4531 558.242,37.9844 558.523,38.6406 558.824,39.3242 559.07,40.1719 559.242,41.1875 559.43,42.2266 559.523,43.5078 559.523,45.0703 559.523,46.7891 559.336,48.2578 558.938,49.4297 558.563,50.6172 557.977,51.5586 557.203,52.2734 556.434,52.9922 555.469,53.5 554.32,53.8203 553.172,54.1406 551.871,54.293 550.398,54.293 549.984,54.293 549.531,54.293 549.039,54.2734 548.531,54.2539 548.098,54.1953 547.684,54.1211 V 34.2305 H 549.457"
         style="fill:#ed1c24;fill-opacity:1;fill-rule:nonzero;stroke:none"
         id="path14"
         inkscape:connector-curvature="0" />
      <path
         d="M 286.762,33.8359 C 286.762,29.8203 286.254,26.1992 285.238,22.957 284.234,19.7148 282.711,16.9414 280.656,14.6445 278.617,12.3438 276.074,10.5898 273.02,9.34766 269.965,8.12109 266.402,7.5 262.367,7.5 258.199,7.5 254.637,8.12109 251.641,9.38281 248.66,10.6289 246.23,12.3984 244.324,14.7031 242.438,17 241.043,19.7734 240.141,23.0156 239.234,26.2578 238.781,29.8594 238.781,33.8359 238.781,37.8164 239.234,41.3945 240.16,44.582 241.082,47.7656 242.516,50.4844 244.438,52.7266 246.379,54.9688 248.832,56.6836 251.813,57.8906 254.789,59.082 258.332,59.6836 262.406,59.6836 266.496,59.6836 270.059,59.082 273.098,57.8906 276.129,56.6836 278.656,54.9688 280.691,52.7266 282.711,50.4844 284.234,47.7656 285.238,44.582 286.254,41.3945 286.762,37.8164 286.762,33.8359 Z M 276.375,33.8359 C 276.375,36.9258 276.113,39.7188 275.586,42.1875 275.039,44.6563 274.207,46.7344 273.055,48.4492 271.926,50.1641 270.473,51.4648 268.703,52.3672 266.93,53.2734 264.84,53.7266 262.406,53.7266 260.273,53.7266 258.297,53.5 256.449,53.0273 254.621,52.5742 253.168,51.918 252.094,51.0664 251.016,50.2188 250.246,48.3711 249.754,45.4883 249.246,42.6211 249,38.7383 249,33.8359 249,30.7813 249.227,28.0078 249.66,25.5195 250.113,23.0352 250.848,20.9023 251.867,19.0938 252.906,17.2852 254.281,15.8867 255.977,14.9297 257.691,13.9453 259.82,13.457 262.352,13.457 264.969,13.457 267.117,13.6992 268.816,14.1758 270.512,14.6445 271.945,15.3047 273.113,16.1172 273.68,16.4727 274.148,17.207 274.547,18.3203 274.961,19.4141 275.301,20.7695 275.586,22.375 275.848,23.9766 276.055,25.7656 276.188,27.7305 276.32,29.707 276.375,31.7422 276.375,33.8359"
         style="fill:#ed1c24;fill-opacity:1;fill-rule:nonzero;stroke:none"
         id="path16"
         inkscape:connector-curvature="0" />
      <path
         d="M 611.273,23.1289 C 611.273,21.2813 610.84,19.4336 609.957,17.582 609.07,15.7188 607.789,14.0391 606.129,12.5508 604.488,11.0625 602.492,9.83594 600.137,8.91406 597.797,7.97266 595.176,7.5 592.27,7.5 590.727,7.5 589.297,7.59375 587.953,7.78125 586.637,7.95313 585.391,8.21484 584.223,8.51563 583.074,8.83594 581.957,9.21484 580.883,9.6875 579.809,10.1367 578.754,10.6484 577.68,11.1953 L 580.113,18.7734 C 580.813,18.2852 581.734,17.7734 582.902,17.2266 584.07,16.6641 585.316,16.1523 586.691,15.6836 588.051,15.1914 589.426,14.793 590.805,14.4961 592.18,14.1758 593.441,14.0195 594.59,14.0195 595.875,14.0195 596.93,14.0977 597.758,14.2656 598.586,14.4375 599.34,14.6641 600,14.9648 600.738,15.25 601.324,15.9805 601.773,17.1719 602.207,18.3398 602.434,19.8672 602.434,21.75 602.434,23.4844 601.871,24.8633 600.719,25.8984 599.586,26.918 598.152,27.8242 596.438,28.5781 594.723,29.332 592.875,30.0859 590.898,30.8398 588.898,31.5938 587.051,32.5742 585.336,33.7617 583.621,34.9492 582.188,36.4922 581.055,38.3789 579.902,40.2461 579.34,42.7148 579.34,45.7695 579.34,47.2383 579.738,48.8047 580.508,50.4258 581.281,52.0664 582.391,53.5742 583.863,54.9688 585.336,56.3477 587.164,57.4805 589.332,58.3633 591.52,59.25 593.988,59.6836 596.742,59.6836 598.945,59.6836 601.074,59.5703 603.113,59.3438 605.168,59.1367 607.148,58.832 609.051,58.4766 L 607.504,50.8984 C 606.621,51.2383 605.621,51.5391 604.508,51.8398 603.379,52.1406 602.246,52.3867 601.074,52.6133 599.906,52.8398 598.777,53.0078 597.684,53.1406 596.57,53.2734 595.59,53.3281 594.762,53.3281 593.801,53.3281 592.91,53.293 592.102,53.1992 591.293,53.1055 590.555,52.8594 589.895,52.4453 589.273,52.0859 588.82,51.4453 588.539,50.5391 588.258,49.6367 588.125,48.5625 588.125,47.3164 588.125,46.0156 588.465,44.957 589.125,44.1094 589.781,43.2617 590.648,42.5078 591.742,41.8672 592.84,41.2266 594.063,40.6406 595.441,40.1133 596.836,39.5664 598.25,39.0039 599.703,38.3984 601.152,37.793 602.566,37.0781 603.961,36.2852 605.336,35.4961 606.563,34.5352 607.656,33.3633 608.75,32.2148 609.617,30.8008 610.277,29.1406 610.938,27.4844 611.273,25.4844 611.273,23.1289"
         style="fill:#ed1c24;fill-opacity:1;fill-rule:nonzero;stroke:none"
         id="path18"
         inkscape:connector-curvature="0" />
      <path
         d="M 529.398,8.21484 H 500.309 V 59.1367 H 528.418 L 527.906,53.9531 510.133,53.7266 V 37.1523 L 526.875,36.9258 526.418,32.2344 510.133,31.8555 V 13.6445 L 529.852,13.25 529.398,8.21484"
         style="fill:#ed1c24;fill-opacity:1;fill-rule:nonzero;stroke:none"
         id="path20"
         inkscape:connector-curvature="0" />
      <path
         d="M 469.145,8.21484 V 53.7266 L 454.289,53.9531 454.781,59.1367 H 493.934 L 493.445,54.1211 479.023,53.7266 V 8.21484 H 469.145"
         style="fill:#ed1c24;fill-opacity:1;fill-rule:nonzero;stroke:none"
         id="path22"
         inkscape:connector-curvature="0" />
      <path
         d="M 448.105,26.1641 C 448.105,23.6172 447.633,21.2227 446.691,18.9609 445.75,16.6992 444.375,14.7227 442.527,13.0234 440.676,11.3242 438.395,9.98828 435.645,8.98828 432.91,7.98828 429.723,7.5 426.125,7.5 423.145,7.5 420.449,7.82031 418.055,8.44141 415.66,9.0625 413.625,10.082 411.91,11.4961 410.195,12.9297 408.871,14.7734 407.949,17.0547 407.023,19.3398 406.574,22.1289 406.574,25.4453 V 59.1367 H 416.395 V 24.4453 C 416.395,21.9219 416.621,19.9063 417.055,18.4141 417.508,16.9258 418.168,15.7539 419.055,14.9648 419.938,14.1523 421.035,13.625 422.336,13.3789 423.652,13.1367 425.145,13.0234 426.84,13.0234 428.949,13.0234 430.742,13.25 432.234,13.6836 433.723,14.1328 434.965,14.7227 435.965,15.4531 437,16.1875 437.641,17.3398 437.887,18.9258 438.152,20.5078 438.281,22.4297 438.281,24.6719 V 59.1367 H 448.105 V 26.1641"
         style="fill:#ed1c24;fill-opacity:1;fill-rule:nonzero;stroke:none"
         id="path24"
         inkscape:connector-curvature="0" />
      <path
         d="M 377.918,31.8203 379.238,32.082 C 380.52,32.3828 381.746,32.7617 382.875,33.2148 384.023,33.6836 385.004,34.3633 385.836,35.2695 386.664,36.1719 387.324,37.3594 387.797,38.832 388.27,40.3047 388.512,42.168 388.512,44.4688 388.512,47.8789 387.742,50.3711 386.191,51.9336 384.648,53.5 382.613,54.293 380.105,54.293 379.484,54.293 378.84,54.2734 378.199,54.2344 377.559,54.1953 376.879,54.1211 376.184,54.0078 V 8.21484 H 366.363 V 58.875 C 367.395,58.9453 368.512,59.0234 369.734,59.082 370.941,59.1563 372.203,59.2305 373.504,59.2852 374.824,59.3438 376.129,59.3789 377.43,59.4023 378.746,59.4219 380.012,59.4219 381.215,59.4219 384.195,59.4219 386.797,59.082 388.984,58.4023 391.172,57.7227 392.98,56.7617 394.414,55.4961 395.863,54.2539 396.922,52.7266 397.621,50.9531 398.316,49.1641 398.672,47.1445 398.672,44.9023 398.672,42.5469 398.277,40.3398 397.504,38.2656 396.73,36.2109 395.543,34.4023 393.961,32.8555 392.359,31.3086 390.305,30.1055 387.813,29.2188 385.344,28.3281 382.387,27.8945 378.953,27.8945 H 378.52 L 377.918,31.8203"
         style="fill:#ed1c24;fill-opacity:1;fill-rule:nonzero;stroke:none"
         id="path26"
         inkscape:connector-curvature="0" />
      <path
         d="M 346.641,8.21484 342.719,47.0547 325.262,8.21484 H 322.281 L 304.055,47.0547 300.754,8.21484 H 295.059 L 299.98,59.4766 H 309.199 L 326.148,23.4102 342.285,59.4766 H 351.277 L 356.633,8.21484 H 346.641"
         style="fill:#ed1c24;fill-opacity:1;fill-rule:nonzero;stroke:none"
         id="path28"
         inkscape:connector-curvature="0" />
      <path
         d="M 213.992,7.5 C 210.184,7.5 206.957,8.14063 204.32,9.44141 201.664,10.7227 199.512,12.5313 197.852,14.8516 196.195,17.1719 194.988,19.9609 194.234,23.2031 193.48,26.4648 193.102,30.0859 193.102,34.0625 193.102,37.2695 193.48,40.1328 194.215,42.6406 194.949,45.168 195.949,47.375 197.211,49.2773 198.492,51.1641 199.965,52.7852 201.645,54.1016 203.32,55.4219 205.074,56.5156 206.941,57.3438 208.805,58.1563 210.711,58.7617 212.652,59.1367 214.613,59.4961 216.5,59.6836 218.348,59.6836 219.48,59.6836 220.684,59.6445 221.969,59.5703 223.23,59.4961 224.473,59.4023 225.66,59.2656 226.867,59.1367 227.98,58.9883 228.996,58.832 230.035,58.668 230.883,58.4961 231.543,58.3633 L 229.715,51.125 C 229.055,51.332 228.129,51.5781 226.906,51.8047 225.699,52.0469 224.398,52.2734 223.023,52.5 221.629,52.7266 220.27,52.8945 218.93,53.0469 217.574,53.1992 216.461,53.2734 215.574,53.2734 214.594,53.2734 213.707,53.2539 212.938,53.1992 212.164,53.1406 211.445,53.0273 210.805,52.8594 210.164,52.6875 209.559,52.4648 208.977,52.1602 208.414,51.8789 207.824,51.5 207.242,51.0664 205.734,49.9922 204.715,47.9766 204.168,44.9961 203.641,42.0195 203.379,38.2852 203.379,33.8359 203.379,26.9922 204.395,21.8086 206.414,18.3008 208.449,14.7734 211.691,13.0234 216.195,13.0234 218.727,13.0234 221.383,13.2305 224.152,13.6641 226.906,14.0781 229.414,14.6797 231.656,15.4531 V 11.1953 C 230.41,10.6094 229.055,10.082 227.602,9.62891 226.152,9.16016 224.645,8.78125 223.117,8.46094 221.59,8.16016 220.043,7.91406 218.477,7.74609 216.914,7.57422 215.426,7.5 213.992,7.5"
         style="fill:#ed1c24;fill-opacity:1;fill-rule:nonzero;stroke:none"
         id="path30"
         inkscape:connector-curvature="0" />
      <path
         d="M 211.688,144.16 C 211.688,141.289 211.418,138.488 210.879,135.75 210.344,133.02 209.539,130.367 208.465,127.793 207.398,125.234 206.066,122.797 204.465,120.512 202.867,118.227 201.023,116.117 198.926,114.195 196.828,112.273 194.473,110.539 191.859,109.008 189.27,107.492 186.438,106.172 183.375,105.063 180.336,103.949 177.023,103.117 173.469,102.563 169.902,102.004 166.141,101.727 162.215,101.727 158.984,101.727 155.871,101.902 152.902,102.25 149.926,102.594 147.074,103.121 144.383,103.824 141.629,104.535 139.09,105.477 136.773,106.633 134.43,107.797 132.258,109.207 130.258,110.855 L 130.234,110.867 C 128.246,112.527 126.469,114.449 124.922,116.625 123.383,118.785 122.082,121.172 121.027,123.773 119.973,126.375 119.188,129.273 118.668,132.461 118.152,135.609 117.895,139.004 117.895,142.641 V 216.953 H 144.406 V 140.52 C 144.406,137.91 144.52,135.605 144.734,133.621 144.949,131.637 145.273,129.922 145.684,128.504 146.098,127.141 146.613,125.926 147.215,124.883 147.77,123.926 148.398,123.125 149.094,122.504 L 149.117,122.48 C 149.84,121.82 150.668,121.262 151.59,120.816 152.527,120.367 153.566,120.027 154.691,119.816 V 119.813 C 155.945,119.586 157.344,119.402 158.875,119.285 160.363,119.168 161.984,119.113 163.734,119.113 165.852,119.113 167.793,119.227 169.559,119.441 171.363,119.66 172.977,119.984 174.387,120.391 175.801,120.82 177.109,121.32 178.313,121.891 179.469,122.438 180.508,123.043 181.41,123.711 L 181.453,123.742 C 182.203,124.273 182.816,124.965 183.285,125.801 L 183.281,125.805 C 183.805,126.75 184.176,127.898 184.383,129.23 V 129.254 C 184.641,130.82 184.844,132.598 184.977,134.563 185.109,136.484 185.176,138.633 185.176,141 V 216.953 H 211.688 V 144.16"
         fill="#ffffff"
         style="fill-opacity:1;fill-rule:nonzero;stroke:none"
         id="path32"
         inkscape:connector-curvature="0" />
      <path
         d="M 278.645,167.305 315.535,107.563 318.203,103.242 H 288.016 L 287.188,104.629 262.734,145.59 225.43,90.8164 615.512,91.5781 615.211,88.4805 613.93,75.3984 613.68,72.8516 C 477.953,72.2852 348.109,71.4141 212.383,71.6602 L 212.379,71.6563 H 191.758 L 194.898,76.1211 253.629,159.633 221.316,212.645 218.691,216.953 H 248.793 L 249.617,215.535 269.313,181.723 299.344,229.184 85.7852,227.691 V 103.242 H 54.3398 V 227.707 L 12.707,228.262 9.92188,228.301 11.7656,247.574 311.227,247.965 311.23,247.969 H 331.59 L 328.711,243.586 278.645,167.305"
         fill="#ffffff"
         style="fill-opacity:1;fill-rule:nonzero;stroke:none"
         id="path34"
         inkscape:connector-curvature="0" />
      <path
         d="M 386.82,103.102 H 322.27 V 216.801 H 387.855 L 387.551,213.688 386.469,202.688 386.223,200.176 383.691,200.145 348.773,199.699 V 170.117 L 381.492,169.676 384.563,169.633 384.27,166.586 383.313,156.625 383.07,154.125 380.559,154.07 348.773,153.332 V 120.223 L 387.836,119.441 390.863,119.379 390.594,116.375 389.633,105.691 389.395,103.102 H 386.82"
         fill="#ffffff"
         style="fill-opacity:1;fill-rule:nonzero;stroke:none"
         id="path36"
         inkscape:connector-curvature="0" />
      <path
         d="M 613.898,160.438 C 613.898,151.641 612.773,143.676 610.523,136.516 H 610.52 C 609.402,132.891 607.984,129.52 606.281,126.426 604.57,123.32 602.543,120.457 600.219,117.848 597.906,115.238 595.301,112.934 592.418,110.934 589.531,108.938 586.375,107.242 582.965,105.855 H 582.953 C 579.527,104.477 575.813,103.438 571.844,102.75 567.906,102.07 563.719,101.727 559.301,101.727 554.73,101.727 550.465,102.07 546.508,102.766 542.535,103.461 538.848,104.527 535.461,105.953 L 535.457,105.945 C 532.086,107.355 529.023,109.063 526.266,111.066 523.484,113.086 521.004,115.414 518.84,118.031 V 118.043 C 516.699,120.652 514.844,123.527 513.277,126.637 511.715,129.738 510.426,133.102 509.418,136.723 508.414,140.32 507.664,144.09 507.168,148.031 506.676,151.973 506.426,156.113 506.426,160.438 506.426,164.715 506.684,168.848 507.188,172.824 507.688,176.773 508.453,180.512 509.469,184.023 510.504,187.594 511.824,190.898 513.414,193.93 515.023,196.996 516.934,199.809 519.113,202.355 L 519.125,202.367 C 521.328,204.914 523.836,207.172 526.641,209.137 529.441,211.098 532.508,212.754 535.84,214.105 H 535.863 C 539.223,215.441 542.883,216.449 546.824,217.113 550.742,217.777 554.938,218.113 559.383,218.113 563.852,218.113 568.07,217.773 572.031,217.113 576.008,216.449 579.703,215.438 583.09,214.117 L 583.102,214.105 C 586.512,212.75 589.648,211.098 592.5,209.16 595.383,207.199 597.98,204.949 600.273,202.422 L 600.285,202.41 C 602.563,199.879 604.578,197.055 606.301,193.965 608,190.918 609.414,187.621 610.523,184.078 H 610.52 C 612.77,177.023 613.898,169.141 613.898,160.438 Z M 586.188,160.438 C 586.188,163.703 586.051,166.738 585.793,169.531 585.523,172.332 585.113,175.023 584.574,177.57 H 584.578 C 584.035,180.02 583.352,182.277 582.516,184.348 581.699,186.375 580.738,188.215 579.633,189.863 L 579.625,189.887 C 578.57,191.484 577.355,192.902 575.98,194.141 574.613,195.371 573.105,196.402 571.465,197.242 L 571.461,197.23 C 569.793,198.082 567.969,198.727 566,199.148 563.98,199.582 561.77,199.805 559.383,199.805 557.207,199.805 555.129,199.691 553.156,199.461 551.148,199.227 549.234,198.883 547.438,198.422 L 547.418,198.41 C 545.66,197.98 544.082,197.445 542.703,196.824 541.352,196.215 540.195,195.531 539.254,194.785 538.508,194.195 537.809,193.137 537.172,191.613 536.43,189.84 535.816,187.527 535.332,184.684 V 184.672 C 534.809,181.715 534.418,178.238 534.16,174.242 533.902,170.242 533.777,165.637 533.777,160.438 533.777,157.277 533.891,154.277 534.117,151.457 534.344,148.57 534.688,145.836 535.129,143.273 H 535.121 C 535.563,140.836 536.168,138.52 536.91,136.355 537.633,134.254 538.488,132.324 539.48,130.563 540.461,128.852 541.598,127.336 542.871,126.047 544.141,124.762 545.566,123.668 547.137,122.777 H 547.148 C 548.73,121.875 550.516,121.191 552.488,120.738 554.516,120.273 556.781,120.035 559.262,120.035 561.953,120.035 564.371,120.156 566.512,120.391 568.66,120.629 570.57,120.984 572.227,121.441 573.852,121.895 575.363,122.441 576.75,123.066 578.125,123.684 579.375,124.391 580.488,125.164 L 580.598,125.234 C 580.836,125.383 581.102,125.676 581.379,126.109 L 581.391,126.121 C 581.766,126.699 582.129,127.484 582.477,128.461 L 582.496,128.52 C 582.887,129.551 583.254,130.754 583.602,132.113 583.953,133.5 584.27,134.996 584.551,136.605 H 584.559 C 584.824,138.242 585.074,140.016 585.285,141.91 585.492,143.727 585.664,145.652 585.801,147.664 585.941,149.816 586.043,151.91 586.102,153.945 586.16,155.848 586.188,158.023 586.188,160.438"
         fill="#ffffff"
         style="fill-opacity:1;fill-rule:nonzero;stroke:none"
         id="path38"
         inkscape:connector-curvature="0" />
      <path
         d="M 404.594,215.973 C 406.234,216.148 408.531,216.371 411.098,216.617 L 412.305,216.73 C 414.008,216.895 415.555,217.031 416.883,217.133 418.313,217.238 419.938,217.352 421.727,217.465 423.277,217.559 424.918,217.648 426.684,217.734 428.262,217.805 429.922,217.879 431.672,217.941 433.301,218 434.941,218.043 436.551,218.066 H 436.563 C 438.633,218.094 440.148,218.113 441.09,218.113 445.375,218.113 449.484,217.875 453.406,217.395 457.301,216.918 461.051,216.188 464.637,215.203 H 464.648 C 468.215,214.219 471.566,212.922 474.672,211.336 L 474.68,211.348 C 477.793,209.758 480.664,207.867 483.27,205.691 L 483.281,205.68 C 485.902,203.465 488.238,200.934 490.266,198.105 492.277,195.301 494.004,192.18 495.426,188.766 496.844,185.352 497.922,181.57 498.629,177.457 499.328,173.398 499.688,169.012 499.688,164.32 499.688,159.805 499.41,155.426 498.867,151.207 498.324,147.004 497.5,143.004 496.402,139.215 495.285,135.359 493.832,131.785 492.066,128.512 490.285,125.207 488.168,122.172 485.727,119.438 483.277,116.688 480.449,114.25 477.277,112.121 474.125,110.012 470.641,108.211 466.84,106.723 H 466.82 C 462.996,105.254 458.789,104.148 454.215,103.418 449.637,102.691 444.711,102.324 439.453,102.324 L 435.035,102.367 C 433.461,102.387 431.879,102.418 430.305,102.457 428.66,102.496 427.059,102.547 425.559,102.609 423.875,102.676 422.285,102.762 420.863,102.855 L 416.395,103.156 412.105,103.457 C 410.535,103.563 409.164,103.668 408.086,103.762 406.93,103.855 405.762,103.977 404.586,104.105 L 402.059,104.391 V 215.699 Z M 434.129,118.824 H 434.164 Z M 428.566,119.281 429.855,119.141 V 119.145 L 431.363,119.023 V 119.02 L 431.563,119.004 H 431.574 C 432.551,118.93 433.504,118.848 434.164,118.824 L 435.406,118.785 436.371,118.781 V 118.793 C 439.445,118.793 442.227,118.887 444.707,119.074 H 444.719 C 447.281,119.262 449.543,119.539 451.492,119.895 V 119.898 C 453.398,120.262 455.16,120.785 456.77,121.461 458.355,122.129 459.828,122.965 461.18,123.961 L 461.184,123.957 C 461.875,124.504 462.543,125.105 463.172,125.762 L 463.168,125.77 C 463.859,126.492 464.5,127.262 465.07,128.066 V 128.078 C 465.652,128.898 466.215,129.867 466.75,130.977 467.32,132.152 467.848,133.445 468.336,134.852 H 468.332 C 468.809,136.27 469.242,137.898 469.629,139.73 470.023,141.629 470.367,143.68 470.652,145.875 470.938,148.109 471.152,150.633 471.293,153.43 V 153.441 C 471.43,156.129 471.5,159.188 471.5,162.598 471.5,170.664 470.555,177.266 468.672,182.344 V 182.355 C 467.758,184.871 466.68,187.094 465.453,189.02 464.246,190.906 462.867,192.551 461.336,193.957 L 461.344,193.965 C 459.832,195.324 458.176,196.492 456.383,197.457 454.605,198.418 452.672,199.176 450.59,199.742 L 450.594,199.754 C 448.477,200.305 446.234,200.734 443.887,201.016 441.559,201.301 439.125,201.445 436.613,201.445 435.789,201.445 434.797,201.438 434.086,201.418 L 432.621,201.336 V 201.332 L 431.125,201.219 V 201.215 L 429.621,201.09 V 201.098 C 429.281,201.066 428.934,201.035 428.566,200.984 V 119.281"
         fill="#ffffff"
         style="fill-opacity:1;fill-rule:nonzero;stroke:none"
         id="path40"
         inkscape:connector-curvature="0" />
    </g>
  </g>
</svg>
